{
	"info": {
		"_postman_id": "4f926e02-4e1a-4aec-941d-13dfedfd3672",
		"name": "REIGN",
		"description": "Collection of request to test REST API challenge.",
		"schema": "https://schema.getpostman.com/json/collection/v2.1.0/collection.json"
	},
	"item": [
		{
			"name": "Articles",
			"item": [
				{
					"name": "getArticles",
					"request": {
						"method": "GET",
						"header": [],
						"url": {
							"raw": "http://localhost:4200/articles/getArticles?page=1",
							"protocol": "http",
							"host": [
								"localhost"
							],
							"port": "4200",
							"path": [
								"articles",
								"getArticles"
							],
							"query": [
								{
									"key": "author",
									"value": "",
									"disabled": true
								},
								{
									"key": "title",
									"value": "",
									"disabled": true
								},
								{
									"key": "_tags[0]",
									"value": "",
									"disabled": true
								},
								{
									"key": "_tags[1]",
									"value": "",
									"disabled": true
								},
								{
									"key": "_tags[2]",
									"value": "",
									"disabled": true
								},
								{
									"key": "page",
									"value": "1"
								}
							]
						},
						"description": "Request that get the articles according to whether they are filtered by author, title and tags. The user can add more tags if desired. By default, the request send the first page of articles (5 max). If the user doesn't select any filter, the request send all articles."
					},
					"response": []
				},
				{
					"name": "removeArticle",
					"request": {
						"method": "DELETE",
						"header": [],
						"url": {
							"raw": "http://localhost:4200/articles/removeArticle?objectID=00000000",
							"protocol": "http",
							"host": [
								"localhost"
							],
							"port": "4200",
							"path": [
								"articles",
								"removeArticle"
							],
							"query": [
								{
									"key": "objectID",
									"value": "00000000"
								}
							]
						},
						"description": "Request that delete an article according to the requested ID."
					},
					"response": []
				},
				{
					"name": "getArticlesByAuthor",
					"request": {
						"method": "GET",
						"header": [],
						"url": {
							"raw": "http://localhost:4200/articles/getArticles?author=jmull&page=1",
							"protocol": "http",
							"host": [
								"localhost"
							],
							"port": "4200",
							"path": [
								"articles",
								"getArticles"
							],
							"query": [
								{
									"key": "author",
									"value": "jmull"
								},
								{
									"key": "page",
									"value": "1"
								}
							]
						},
						"description": "Request that get the first page of all the articles of the  \nrequested author."
					},
					"response": []
				},
				{
					"name": "getArticlesByTitle",
					"request": {
						"method": "GET",
						"header": [],
						"url": {
							"raw": "http://localhost:4200/articles/getArticles?title=Auto approvers for routes and exit nodes&page=1",
							"protocol": "http",
							"host": [
								"localhost"
							],
							"port": "4200",
							"path": [
								"articles",
								"getArticles"
							],
							"query": [
								{
									"key": "title",
									"value": "Auto approvers for routes and exit nodes"
								},
								{
									"key": "page",
									"value": "1"
								}
							]
						},
						"description": "Request that get the first page of all the articles with the  \nrequested title."
					},
					"response": []
				},
				{
					"name": "getArticlesByTags",
					"request": {
						"method": "GET",
						"header": [],
						"url": {
							"raw": "http://localhost:4200/articles/getArticles?_tags[0]=story&page=1",
							"protocol": "http",
							"host": [
								"localhost"
							],
							"port": "4200",
							"path": [
								"articles",
								"getArticles"
							],
							"query": [
								{
									"key": "_tags[0]",
									"value": "story"
								},
								{
									"key": "_tags[1]",
									"value": null,
									"disabled": true
								},
								{
									"key": "_tags[2]",
									"value": null,
									"disabled": true
								},
								{
									"key": "page",
									"value": "1"
								}
							]
						},
						"description": "Request that get the first page of all the articles with the  \nrequested tags. The user can add more tags if desired."
					},
					"response": []
				}
			],
			"description": "Request to test REST API connection to database."
		},
		{
			"name": "get200",
			"request": {
				"method": "GET",
				"header": [],
				"url": {
					"raw": "http://localhost:4200/",
					"protocol": "http",
					"host": [
						"localhost"
					],
					"port": "4200",
					"path": [
						""
					]
				}
			},
			"response": []
		},
		{
			"name": "get404",
			"request": {
				"method": "GET",
				"header": [],
				"url": {
					"raw": "http://localhost:4200/*",
					"protocol": "http",
					"host": [
						"localhost"
					],
					"port": "4200",
					"path": [
						"*"
					]
				}
			},
			"response": []
		}
	],
	"event": [
		{
			"listen": "prerequest",
			"script": {
				"type": "text/javascript",
				"exec": [
					""
				]
			}
		},
		{
			"listen": "test",
			"script": {
				"type": "text/javascript",
				"exec": [
					""
				]
			}
		}
	]
}